INDEX VERSION 1.127+C:\Users\R850\Documents\SENG426\se426g07-seng426-e-cheque-system\The e-Cheque System\.metadata\.plugins\org.eclipse.jdt.core
2797068352.index
1691998267.index
1603248267.index
1512337668.index
3501265321.index
162911328.index
1868083509.index
2542541016.index
3752786996.index
129013056.index
